{"code":200,"msg":"成功","data":null,"page":{"offset":0,"limit":2147483647,"total":20,"size":10,"pages":2,"current":1,"searchCount":true,"openSort":true,"ascs":null,"descs":null,"orderByField":null,"records":[{"cname":"气质联用仪","ename":"qzldy","innerId":"038729cd37e04358b137221a21113954","insCode":"291367d731bd430ea685","instrBelongsType":"无","instrBelongsName":"无","instrCategory":"010000","instrSource":"购置","instrSupervise":"否","worth":69.81,"nation":"美国","manufacturer":"Agilent","beginDate":1171555200000,"type":"通用","instrVersion":"5975C","technical":"GC 可同时接质谱和昆虫触角电位仪。\r\nMass为四级杆质谱。\r\n有顶空进样器和自动进样器","function":"挥发成分分析。","subject":"生物学；农学；药学","serviceContent":"矢量网络分析仪,微波频域参数测量,微波时域参数测量,微波信号源,微波功率测量","achievement":"为国家863项目提供了设备支持","status":"偶有故障","requirement":"只对系统内认证的用户开放共享","fee":"一小时内500元，超出一小时部分按每小时400元收费","serviceUrl":"http://www.ServiceUrl.com/order","province":"内蒙古","city":"呼和浩特市","county":"赛罕区","street":"腾飞路68号","contact":"张三","phone":"","email":"zhangsan@qq.com","address":"内蒙古呼和浩特市腾飞路68号","postalcode":"100101","shareMode":"外部共享","image":"templates/image/IMG_3115.JPG ","runMachine":54.33,"serviceMachine":43.8,"funds":"中央财政资金，其他资金","insideDepart":"华轩","auditStatus":"0","orderNum":0,"isDel":"0","isAudit":"-1","auditFailReason":null,"extend1":null,"extend2":null,"extend3":null,"extend4":null,"extend5":null},{"cname":"差示扫描热量计","ename":"qzldy1","innerId":"043437eae3724c1ea41471ddd202c03c","insCode":"291367d731bd430ea685","instrBelongsType":"无","instrBelongsName":"无","instrCategory":"010000","instrSource":"购置","instrSupervise":"否","worth":53.8,"nation":"美国","manufacturer":"PerkinElmer","beginDate":1354809600000,"type":"专用","instrVersion":"DSC8000","technical":"DSC类型 ：双炉体设计 采用低质量，极大的缩短了信号响应和炉体冷却时间 \r\n测试原理： 功率补偿式 直接测量热流（能量），无需转换，热流测量更加准确 \r\n炉体材质 ：铂铱合金 \r\n调制DSC： 标配 \r\n冷却附件： 冷却器，2级机械制冷，3级机械制冷，自动液氮制冷 \r\n双路数字质量流量控制器 ：标配 96位自动进样器： 选配 \r\n动态量程 ±800 mW","function":"1.极佳的灵敏度和重现性2.最新升级的双炉体设计，最准确的热流测量3.对称的炉体，保证样品盘和参比盘的始终同步响应4. 抗氧化、耐化学腐蚀的铂铱合金炉体5.最稳定准确的程序控制升降温6.选配高压附件可在高达600 psi下测试样品7. 选配UV光量热附件8. 隔离式样品室设计，适用于危险样品的测试9.包含调制DSC功能（MT-DSC）10. 冷却附件切换简便易行，适于实验室的长期选配需求","subject":"食品科学技术","serviceContent":"矢量网络分析仪,微波频域参数测量,微波时域参数测量,微波信号源,微波功率测量","achievement":"为国家863项目提供了设备支持","status":"待报废","requirement":"只对系统内认证的用户开放共享","fee":"一小时内500元，超出一小时部分按每小时400元收费","serviceUrl":"http://www.ServiceUrl.com/order","province":"内蒙古","city":"呼和浩特市","county":"赛罕区","street":"腾飞路68号","contact":"张三","phone":null,"email":"zhangsan@qq.com","address":"内蒙古呼和浩特市腾飞路68号","postalcode":"100101","shareMode":"不共享","image":"templates/image/IMG_3115.JPG ","runMachine":54.33,"serviceMachine":43.8,"funds":"中央财政资金，其他资金","insideDepart":"生物中心","auditStatus":"0","orderNum":0,"isDel":"0","isAudit":"-1","auditFailReason":null,"extend1":null,"extend2":null,"extend3":null,"extend4":null,"extend5":null},{"cname":"离子色谱仪","ename":"qzldy2","innerId":"21a7980ce8754a1caed5af92d79132de","insCode":"291367d731bd430ea685","instrBelongsType":"无","instrBelongsName":"无","instrCategory":"010000","instrSource":"购置","instrSupervise":"否","worth":53.5,"nation":"美国","manufacturer":"Dionex","beginDate":1324310400000,"type":"专用","instrVersion":"ICS1100","technical":"分析泵和输送装置\r\n类型：串联式双活塞往复泵，微处理器控制定冲程，可变速度。\r\n结构：化学惰性，非金属PEEK材料泵头和流路；pH0-14水溶液和反相溶剂兼容。\r\n控制模式：通过变色龙软件全程控制，可选择TTL或继电器开关。\r\n最大操作压力35MPa（5000psi）\r\n压力波动＜1.0%\r\n流速范围0.00－5.00mL/min\r\n流量精度＜0.1%\r\n流量准确度＜0.1%\r\n活塞密封清洗双泵头，连接洗涤液时连续清洗\r\n压力范围0-5000psi（PEEK泵头），可设置上下限报警功能\r\n淋洗液瓶聚丙烯","function":"测样品中常规的阴阳离子项目，常规阴离子有氟离子，氯离子，溴离子，硫酸根离子，硝酸根离子，亚硝酸根离子，磷酸根离子；常规阳离子有锂离子，钠离子，铵根离子，钾离子，镁离子，钙离子。","subject":"化学；农学；林学；环境科学技术","serviceContent":"矢量网络分析仪,微波频域参数测量,微波时域参数测量,微波信号源,微波功率测量","achievement":"为国家863项目提供了设备支持","status":"故障频繁、待修","requirement":"只对系统内认证的用户开放共享","fee":"一小时内500元，超出一小时部分按每小时400元收费","serviceUrl":"http://www.ServiceUrl.com/order","province":"内蒙古","city":"呼和浩特市","county":"赛罕区","street":"腾飞路68号","contact":"张三","phone":null,"email":"zhangsan@qq.com","address":"内蒙古呼和浩特市腾飞路68号","postalcode":"100101","shareMode":"不共享","image":"templates/image/IMG_3115.JPG ","runMachine":54.33,"serviceMachine":43.8,"funds":"中央财政资金，其他资金","insideDepart":"生物中心","auditStatus":"0","orderNum":0,"isDel":"0","isAudit":"-1","auditFailReason":null,"extend1":null,"extend2":null,"extend3":null,"extend4":null,"extend5":null},{"cname":"气相色谱仪","ename":"qzldy3","innerId":"35a5be02e9754249b53a3209543a3f2f","insCode":"291367d731bd430ea685","instrBelongsType":"无","instrBelongsName":"无","instrCategory":"010000","instrSource":"购置","instrSupervise":"否","worth":55.55,"nation":"日本","manufacturer":"日本岛津","beginDate":1262188800000,"type":"通用","instrVersion":"2010plus","technical":"升温速率：±250℃/min；程序升温的阶数：20 阶；控温准确性：0.01℃；冷却速度：从400 降到50℃小于6分钟；能同时安装三个独立控温的进样单元；分流/不分流毛细管进样口，分流比设定范围：0~9999.9；流量设定范围：0~1200ml/min；检测器的数据采集速率: 250Hz (4ms)，氢火焰离子化检测器（FID） 检测限: 小于3×10-12g/s ( 十二烷 )；电子捕获检测器（ECD）检测限: 8fg/s (？-六六六)；火焰热离子化检测器（NPD）检测限： 氮 0.3pgN/s (","function":"适用于挥发性有机化合物的分离和定量分析。如食品中挥发性芳香物质、 脂肪酸、食品添加剂、农药残留和环境中挥发性污染物等。","subject":"生物学；农学；林学；畜牧、兽医科学；水产学；航空、航天科学技术；环境科学技术","serviceContent":"矢量网络分析仪,微波频域参数测量,微波时域参数测量,微波信号源,微波功率测量","achievement":"为国家863项目提供了设备支持","status":"偶有故障","requirement":"只对系统内认证的用户开放共享","fee":"一小时内500元，超出一小时部分按每小时400元收费","serviceUrl":"http://www.ServiceUrl.com/order","province":"内蒙古","city":"呼和浩特市","county":"赛罕区","street":"腾飞路68号","contact":"张三","phone":null,"email":"zhangsan@qq.com","address":"内蒙古呼和浩特市腾飞路68号","postalcode":"100101","shareMode":"外部共享","image":"templates/image/IMG_3115.JPG ","runMachine":54.33,"serviceMachine":43.8,"funds":"中央财政资金，其他资金","insideDepart":"林学与园林学院","auditStatus":"0","orderNum":0,"isDel":"0","isAudit":"-1","auditFailReason":null,"extend1":null,"extend2":null,"extend3":null,"extend4":null,"extend5":null},{"cname":"发酵系统","ename":"qzldy4","innerId":"3f9cbacec0984e4e90194eb16ccc4fa7","insCode":"291367d731bd430ea685","instrBelongsType":"无","instrBelongsName":"无","instrCategory":"010000","instrSource":"购置","instrSupervise":"否","worth":154.5,"nation":"中国","manufacturer":"上海高盟","beginDate":1203177600000,"type":"通用","instrVersion":"GMBIO-3000","technical":"包括700L罐4个、70L罐4个和10L罐两个。可自动控制pH、溶氧和温度等参数","function":"微生物发酵。","subject":"生物学；药学","serviceContent":"矢量网络分析仪,微波频域参数测量,微波时域参数测量,微波信号源,微波功率测量","achievement":"为国家863项目提供了设备支持","status":"偶有故障","requirement":"只对系统内认证的用户开放共享","fee":"一小时内500元，超出一小时部分按每小时400元收费","serviceUrl":"http://www.ServiceUrl.com/order","province":"内蒙古","city":"呼和浩特市","county":"赛罕区","street":"腾飞路68号","contact":"张三","phone":null,"email":"zhangsan@qq.com","address":"内蒙古呼和浩特市腾飞路68号","postalcode":"100101","shareMode":"外部共享","image":"templates/image/IMG_3115.JPG ","runMachine":54.33,"serviceMachine":43.8,"funds":"中央财政资金，其他资金","insideDepart":"林学与园林学院","auditStatus":"0","orderNum":0,"isDel":"0","isAudit":"-1","auditFailReason":null,"extend1":null,"extend2":null,"extend3":null,"extend4":null,"extend5":null},{"cname":"液质联用","ename":"qzldy5","innerId":"4fda271b67fc4ab58eed831076a3630d","insCode":"291367d731bd430ea685","instrBelongsType":"无","instrBelongsName":"无","instrCategory":"010000","instrSource":"赠送","instrSupervise":"否","worth":150.0,"nation":"美国","manufacturer":"Agilent","beginDate":1159804800000,"type":"通用","instrVersion":"Time of Flight 6210","technical":"DAD紫外光谱扫描范围190-1100nm。\r\nTime of Flight Mass 分辨率可达10000以上， 离子源为ESI，测量范围可达200000D。\r\nLC包括自动进样器、柱温箱、脱气机","function":"化合物成分鉴定。\r\n混合物分离分析","subject":"生物学；药学","serviceContent":"矢量网络分析仪,微波频域参数测量,微波时域参数测量,微波信号源,微波功率测量","achievement":"为国家863项目提供了设备支持","status":"正常","requirement":"只对系统内认证的用户开放共享","fee":"一小时内500元，超出一小时部分按每小时400元收费","serviceUrl":"http://www.ServiceUrl.com/order","province":"内蒙古","city":"呼和浩特市","county":"赛罕区","street":"腾飞路68号","contact":"张三","phone":null,"email":"zhangsan@qq.com","address":"内蒙古呼和浩特市腾飞路68号","postalcode":"100101","shareMode":"外部共享","image":"templates/image/IMG_3115.JPG ","runMachine":54.33,"serviceMachine":43.8,"funds":"中央财政资金，其他资金","insideDepart":"林学与园林学院","auditStatus":"0","orderNum":0,"isDel":"0","isAudit":"-1","auditFailReason":null,"extend1":null,"extend2":null,"extend3":null,"extend4":null,"extend5":null},{"cname":"激光动态光散射仪","ename":"qzldy6","innerId":"54c273197dea49bebb1e305a4b02f552","insCode":"291367d731bd430ea685","instrBelongsType":"无","instrBelongsName":"无","instrCategory":"010000","instrSource":"购置","instrSupervise":"否","worth":72.62,"nation":"美国","manufacturer":"Brookhaven","beginDate":1271347200000,"type":"通用","instrVersion":"B1-200SM","technical":"粒子尺度\r\n 1~5000nm\r\n 散射率\r\n 10-5 ~10-10 cm2/s \r\n分子量区间\r\n 103~1012 g/mol\r\n 散射角度\r\n 10°~150°分辨率0.01° \r\n信号处理\r\n 通过Photocor-FC处理器 \r\n激光器\r\n He-Ne633nm（功率1~40mW） \r\n尺寸/重量/电源\r\n 740 x 410 x 225 mm / 19 kg / 220(110) v, 140 w","function":"1.        可以多角度动态和静态测量光散射，可以快速测量实时监控纳米级粒子\r\n2.  传统的仪器设计架构，刚性结构，无需光学实验台，使用者很容易操作。\r\n3.  准备样品容易，可以使用不同的样品管及样品瓶。\r\n4.  可以与不同的激光器配合，并可与PMT/APD等光子采集器联用。\r\n5. 通过循环及冷却器可以做到精确控温。\r\n6. 测量系统有着高准确性及可靠性","subject":"物理学；生物学；农学","serviceContent":"矢量网络分析仪,微波频域参数测量,微波时域参数测量,微波信号源,微波功率测量","achievement":"为国家863项目提供了设备支持","status":"偶有故障","requirement":"只对系统内认证的用户开放共享","fee":"一小时内500元，超出一小时部分按每小时400元收费","serviceUrl":"http://www.ServiceUrl.com/order","province":"内蒙古","city":"呼和浩特市","county":"赛罕区","street":"腾飞路68号","contact":"张三","phone":null,"email":"zhangsan@qq.com","address":"内蒙古呼和浩特市腾飞路68号","postalcode":"100101","shareMode":"外部共享","image":"templates/image/IMG_3115.JPG ","runMachine":54.33,"serviceMachine":43.8,"funds":"中央财政资金，其他资金","insideDepart":"生命科学学院","auditStatus":"0","orderNum":0,"isDel":"0","isAudit":"-1","auditFailReason":null,"extend1":null,"extend2":null,"extend3":null,"extend4":null,"extend5":null},{"cname":"气质联用仪","ename":"qzldy7","innerId":"62ec62bdca2d4ba48eadaa4ae7dde852","insCode":"291367d731bd430ea685","instrBelongsType":"无","instrBelongsName":"无","instrCategory":"010000","instrSource":"购置","instrSupervise":"否","worth":59.6,"nation":"美国","manufacturer":"Angilent","beginDate":1352217600000,"type":"专用","instrVersion":"7890A+5795C","technical":"GC-MS 真空系统2.5 m3/min\r\n挥发性、半挥发常量、痕量化合物分析","function":"挥发性、半挥发常量、痕量化合物分析","subject":"农学；食品科学技术","serviceContent":"矢量网络分析仪,微波频域参数测量,微波时域参数测量,微波信号源,微波功率测量","achievement":"为国家863项目提供了设备支持","status":"待报废","requirement":"只对系统内认证的用户开放共享","fee":"一小时内500元，超出一小时部分按每小时400元收费","serviceUrl":"http://www.ServiceUrl.com/order","province":"内蒙古","city":"呼和浩特市","county":"赛罕区","street":"腾飞路68号","contact":"张三","phone":null,"email":"zhangsan@qq.com","address":"内蒙古呼和浩特市腾飞路68号","postalcode":"100101","shareMode":"不共享","image":"templates/image/IMG_3115.JPG ","runMachine":54.33,"serviceMachine":43.8,"funds":"中央财政资金，其他资金","insideDepart":"林学与园林学院","auditStatus":"0","orderNum":0,"isDel":"0","isAudit":"-1","auditFailReason":null,"extend1":null,"extend2":null,"extend3":null,"extend4":null,"extend5":null},{"cname":"光合仪荧光叶室","ename":"qzldy8","innerId":"696f1b2e5fef4e3ba6e06b590a324ff6","insCode":"291367d731bd430ea685","instrBelongsType":"无","instrBelongsName":"无","instrCategory":"010000","instrSource":"购置","instrSupervise":"否","worth":97.4,"nation":"中国","manufacturer":"中国","beginDate":1291219200000,"type":"专用","instrVersion":"6400-40","technical":"-","function":"-","subject":"农学；林学","serviceContent":"矢量网络分析仪,微波频域参数测量,微波时域参数测量,微波信号源,微波功率测量","achievement":"为国家863项目提供了设备支持","status":"故障频繁、待修","requirement":"只对系统内认证的用户开放共享","fee":"一小时内500元，超出一小时部分按每小时400元收费","serviceUrl":"http://www.ServiceUrl.com/order","province":"内蒙古","city":"呼和浩特市","county":"赛罕区","street":"腾飞路68号","contact":"张三","phone":null,"email":"zhangsan@qq.com","address":"内蒙古呼和浩特市腾飞路68号","postalcode":"100101","shareMode":"内部共享","image":"templates/image/IMG_3115.JPG ","runMachine":54.33,"serviceMachine":43.8,"funds":"中央财政资金，其他资金","insideDepart":"生物中心","auditStatus":"0","orderNum":0,"isDel":"0","isAudit":"-1","auditFailReason":null,"extend1":null,"extend2":null,"extend3":null,"extend4":null,"extend5":null},{"cname":"超导液体核磁共振波谱仪","ename":"qzldy9","innerId":"6ec8e4491a3c4d25bb149b2d70c4e26a","insCode":"291367d731bd430ea685","instrBelongsType":"无","instrBelongsName":"无","instrCategory":"010000","instrSource":"购置","instrSupervise":"否","worth":478.86,"nation":"美国","manufacturer":"美国安捷伦","beginDate":1402934400000,"type":"通用","instrVersion":"DD2 600M","technical":"⑴OneNMR探头:1H - 19F/15N - 31P 5mm 二合一宽带探头，它同时结合了传统的碳检测探头（直接检测）和质子探头（间接检测）的性能。变温范围：-80至+130℃。⑵HCN 探头：1H{13C/15N} 3mm 自动三共振探头（Auto Triple Resonance），对于质子的检测具有更高灵敏度，适合于采集样品的2D,3D多维谱图，尤其是同位素富集的生化样品。变温范围：-80至+130℃。","function":"核磁共振技术作为分析物质的手段，由于其可深入物质内部而不破坏样品，并具有迅速、准确、分辨率高等优点而得以迅速发展，已经从从一维谱图（1D）发展到如今的二维（2D）、三维（3D）甚至多维谱图，将分子结构和分子间的关系表现得更加清晰。核磁共振仪可完成分子结构的测定，化学位移各向异性的研究，金属离子同位素的应用，有机化合物的结构解析，大分子化学结构的分析，有机化合物中异构体的区分和确定，药品鉴定，农药鉴定，食品分析，涂料分析，原油的定性鉴定和结构分析，生物体中水的研究，生物膜和脂质的多形性研究，脂质双分子层的脂","subject":"生物学；农学；林学；畜牧、兽医科学；水产学","serviceContent":"矢量网络分析仪,微波频域参数测量,微波时域参数测量,微波信号源,微波功率测量","achievement":"为国家863项目提供了设备支持","status":"正常","requirement":"只对系统内认证的用户开放共享","fee":"一小时内500元，超出一小时部分按每小时400元收费","serviceUrl":"http://www.ServiceUrl.com/order","province":"内蒙古","city":"呼和浩特市","county":"赛罕区","street":"腾飞路68号","contact":"张三","phone":null,"email":"zhangsan@qq.com","address":"内蒙古呼和浩特市腾飞路68号","postalcode":"100101","shareMode":"外部共享","image":"templates/image/IMG_3115.JPG ","runMachine":54.33,"serviceMachine":43.8,"funds":"中央财政资金，其他资金","insideDepart":"生命科学学院","auditStatus":"0","orderNum":0,"isDel":"0","isAudit":"-1","auditFailReason":null,"extend1":null,"extend2":null,"extend3":null,"extend4":null,"extend5":null}],"condition":null,"asc":true},"flag":null,"token":null}